[
  {
    "year": 1991,
    "population": 547658,
    "costOfLiving": 250.50
  },
  {
    "year": 2001,
    "population": 745879,
    "costOfLiving": 380.50
  },
  {
    "year": 2011,
    "population": 1050345,
    "costOfLiving": 790.40
  },
  {
    "year": 2016,
    "population": 1166763,
    "costOfLiving": 850.50
  },
  {
    "year": 2021,
    "population": 1250478,
    "costOfLiving": 870.70
  }
]
