[
  {
    "year": 1991,
    "population": 811345,
    "costOfLiving": 780.50
  },
  {
    "year": 2001,
    "population": 967354,
    "costOfLiving": 905.50
  },
  {
    "year": 2011,
    "population": 1093318,
    "costOfLiving": 1204.50
  },
  {
    "year": 2016,
    "population": 1223000,
    "costOfLiving": 1150.50
  },
  {
    "year": 2021,
    "population": 1346789,
    "costOfLiving": 1215.50
  }
]
