[
  {
    "year": 1991,
    "population": 1150000,
    "costOfLiving": 100.50
  },
  {
    "year": 2001,
    "population": 1350876,
    "costOfLiving": 200.50
  },
  {
    "year": 2011,
    "population": 1780445,
    "costOfLiving": 425.50
  },
  {
    "year": 2016,
    "population": 1982444,
    "costOfLiving": 450.50
  },
  {
    "year": 2021,
    "population": 2000135,
    "costOfLiving": 650.50
  }
]
