[
  {
    "year": 1991,
    "population": 850678,
    "costOfLiving": 300.50
  },
  {
    "year": 2001,
    "population": 987654,
    "costOfLiving": 570.50
  },
  {
    "year": 2011,
    "population": 1150000,
    "costOfLiving": 650.50
  },
  {
    "year": 2016,
    "population": 1301132,
    "costOfLiving": 780.50
  },
  {
    "year": 2021,
    "population": 1510742,
    "costOfLiving": 890.50
  }
]
