[
  {
    "year": 1991,
    "population": 850457,
    "costOfLiving": 120.50
  },
  {
    "year": 2001,
    "population": 910343,
    "costOfLiving": 220.50
  },
  {
    "year": 2011,
    "population": 1020653,
    "costOfLiving": 420.50
  },
  {
    "year": 2016,
    "population": 1170910,
    "costOfLiving": 550.50
  },
  {
    "year": 2021,
    "population": 1350543,
    "costOfLiving": 570.50
  }
]
