[
  {
    "year": 1991,
    "population": 801809,
    "costOfLiving": 90.50
  },
  {
    "year": 2001,
    "population": 895678,
    "costOfLiving": 190.50
  },
  {
    "year": 2011,
    "population": 1095123,
    "costOfLiving": 320.50
  },
  {
    "year": 2016,
    "population": 1121429,
    "costOfLiving": 450.50
  },
  {
    "year": 2021,
    "population": 1380561,
    "costOfLiving": 470.50
  }
]
