[
  {
    "year": 1991,
    "population": 1400564,
    "costOfLiving": 635.50
  },
  {
    "year": 2001,
    "population": 1690276,
    "costOfLiving": 750.50
  },
  {
    "year": 2011,
    "population": 1899000,
    "costOfLiving": 1100.50
  },
  {
    "year": 2016,
    "population": 1899055,
    "costOfLiving": 1100.50
  },
  {
    "year": 2021,
    "population": 2000320,
    "costOfLiving": 1200.50
  }
]
