[
  {
    "year": 1991,
    "population": 1140567,
    "costOfLiving": 275.50
  },
  {
    "year": 2001,
    "population": 1230879,
    "costOfLiving": 450.50
  },
  {
    "year": 2011,
    "population": 1620450,
    "costOfLiving": 720.50
  },
  {
    "year": 2016,
    "population": 1748916,
    "costOfLiving": 980.50
  },
  {
    "year": 2021,
    "population": 2010789,
    "costOfLiving": 980.50
  }
]
